{
	"menus": [{
		"name": "Dashboard",
		"url": "/uiDashBoard/product/productsells.do",
		"visible": true,
		"class": "start active",
		"icon":"icon-bar-chart",
		"selected":"selected",
		"subMenus": [{
			"name": "Product Sells",
			"url": "/uiDashBoard/product/productsells.do",
			"visible": true
		},
		{
			"name": "Time to sell",
			"url": "/uiDashBoard/stcok/region.do",
			"visible": true
		},
		{
			"name": "Revenue Loss",
			"url": "/uiDashBoard/revenueloss/view.do",
			"visible": true
		},
		{
			"name": "Recharge value",
			"url": "/uiDashBoard/product/productsells.do",
			"visible": false
		},
		{
			"name": "POS mind share",
			"url": "/uiDashBoard/product/productsells.do",
			"visible": false
		},
		{
			"name": "Map Drill",
			"url": "/uiDashBoard/test/test.do",
			"visible": false
		},
		{
			"name": "POS campaign success",
			"url": "/uiDashBoard/product/productsells.do",
			"visible": false
		},
		
		{
			"name": "Non productive cost",
			"url": "/uiDashBoard/user/user.do",
			"visible": false
		},
		{
			"name": "Inventory stock value",
			"url": "/uiDashBoard/product/productsells.do",
			"visible": false
		},
		{
			"name": "Product quality",
			"url": "/uiDashBoard/productquality/productsells.do",
			"visible": true
		},
		{
			"name": "Users associated to order",
			"url": "/uiDashBoard/user/user.do",
			"visible": true
		},
		{
			"name": "Time to sell",
			"url": "/uiDashBoard/product/productsells.do",
			"visible": false
		},
		{
			"name": "Product quality",
			"url": "/uiDashBoard/product/productsells.do",
			"visible": false
		},
		{
			"name": "Cumulated revenue",
			"url": "/uiDashBoard/product/productsells.do",
			"visible": false
		},
		{
			"name": "Merchandizing stock",
			"url": "/uiDashBoard/product/productsells.do",
			"visible": false
		},
		{
			"name": "Product Sale Analysis",
			"url": "/uiDashBoard//productsalesanalysis/view.do",
			"visible": true
		}]
	}]
}